 ls -ltr
  812  cd dist/
  813  ls -ltr
  814  cd /var/www/html/
  815  ls -ltr
  816  pwd
  817  cd /home/
  818  ls -ltr
  819  mkdir /data/backup
  820  mkdir -p /data/backup
  821  cd /data/backup/
  822  ls -ltr
  823  clear
  824  ls -ltr
  825  pwd
  826  mkdir iam_udm_ui
  827  cd -
  828  cd /root/.jenkins/workspace/
  829  ls -ltr
  830  cd iam_udm_ui
  831  ls -ltr
  832  cd dist/
  833  ls -ltr
  834  clear
  835  pwd
  836  ls -ltr
  837  cd -
  838  cd /var/www/html/
  839  ls -ltr
  840  chmod -R 755 *
  841  ps -ef|grep tomcat
